%YAML 1.1
%TAG !u! tag:unity3d.com,2011:
--- !u!114 &11400000
MonoBehaviour:
  m_ObjectHideFlags: 0
  m_CorrespondingSourceObject: {fileID: 0}
  m_PrefabInstance: {fileID: 0}
  m_PrefabAsset: {fileID: 0}
  m_GameObject: {fileID: 0}
  m_Enabled: 1
  m_EditorHideFlags: 0
  m_Script: {fileID: 11500000, guid: 4e8861d3cd6124c66901085138d6e106, type: 3}
  m_Name: Trap_SingleTarget
  m_EditorClassIdentifier: 
  resultingTrap: {fileID: 5569508235641992847, guid: c8537a72f4aa6b34aba7a7cde800457f,
    type: 3}
  sprite: {fileID: 0}
  trapName: Bear Trap
  description: 
  cost: 100
